{
    "jet_collection": "AntiKtVR30Rmax4Rmin02PV0TrackJets",
    "calibration": {},
    "selection": {
        "minimum_jet_constituents": 2,
        "minimum_jet_pt": 10000,
        "maximum_jet_absolute_eta": 2.5
    },
    "vertex_collection": "PrimaryVertices",
    "dl2_configs": [
        {
            "nn_file_path": "BTagging/20230208/dipsLoose/antiktvr30rmax4rmin02track/network.json",
            "remapping": {
                "dipsLooseVR20230208_pu": "dipsLooseVR20230208_pu",
                "dipsLooseVR20230208_pc": "dipsLooseVR20230208_pc",
                "dipsLooseVR20230208_pb": "dipsLooseVR20230208_pb",
                "invalidIp": ""
            }
        },
        {
            "nn_file_path": "BTagging/20230307/DL1dv01/antiktvr30rmax4rmin02track/network.json",
            "remapping": {
                "DL1dv01_pu": "DL1dv01_pu",
                "DL1dv01_pc": "DL1dv01_pc",
                "DL1dv01_pb": "DL1dv01_pb",
                "invalidIp": ""
            }
        },
        {
            "nn_file_path": "BTagging/20230307/gn2v00/antiktvr30rmax4rmin02track/network.onnx",
            "engine": "gnn",
            "remapping": {
                "GN2v00_pu": "GN2v00_pu",
                "GN2v00_pc": "GN2v00_pc",
                "GN2v00_pb": "GN2v00_pb",
                "invalidIp": ""
            }
        },
        {
            "nn_file_path": "BTagging/201903/rnnip/antiktvr30rmax4rmin02track/network.json",
            "remapping": {
                "rnnip_pu": "rnnip_r21_vr_pu",
                "rnnip_pc": "rnnip_r21_vr_pc",
                "rnnip_pb": "rnnip_r21_vr_pb",
                "invalidIp": ""
            }
        },
        {
            "nn_file_path": "BTagging/201903/dl1r/antiktvr30rmax4rmin02track/network.json",
            "remapping": {
                "DL1r_pu": "DL1r_r21_vr_pu",
                "DL1r_pc": "DL1r_r21_vr_pc",
                "DL1r_pb": "DL1r_r21_vr_pb",
                "maximumTrackRelativeEta": "JetFitterSecondaryVertex_maximumAllJetTrackRelativeEta",
                "minimumTrackRelativeEta": "JetFitterSecondaryVertex_minimumAllJetTrackRelativeEta",
                "averageTrackRelativeEta": "JetFitterSecondaryVertex_averageAllJetTrackRelativeEta",
                "invalidIp": ""
            }
        },
        {
            "nn_file_path": "dev/BTagging/20211126r22/dipsLoose/antiktvr30rmax4rmin02track/network.json",
            "remapping": {
                "dipsLoose20210729_pu": "dipsLoose20210729_ptfrac_pu",
                "dipsLoose20210729_pc": "dipsLoose20210729_ptfrac_pc",
                "dipsLoose20210729_pb": "dipsLoose20210729_ptfrac_pb",
                "invalidIp": ""
            }
        }
    ],
    "variables": {
        "file": "fragments/vr-variables.json",
        "btagging": {
            "floats": [
                "DL1r_r21_vr_pu",
                "DL1r_r21_vr_pc",
                "DL1r_r21_vr_pb",
                "rnnip_r21_vr_pu",
                "rnnip_r21_vr_pc",
                "rnnip_r21_vr_pb",
                "dipsLoose20210729_ptfrac_pu",
                "dipsLoose20210729_ptfrac_pc",
                "dipsLoose20210729_ptfrac_pb",
                "dipsLooseVR20230208_pu",
                "dipsLooseVR20230208_pc",
                "dipsLooseVR20230208_pb",
                "DL1dv01_pu",
                "DL1dv01_pc",
                "DL1dv01_pb",
                "GN2v00_pu",
                "GN2v00_pc",
                "GN2v00_pb"
            ]
        },
        "default_mapping": {
            "file": "fragments/default-mapping.json"
        }
    },
    "tracks": [
        {
            "n_to_save": 40,
            "selection": {
                "file": "fragments/r22default-track-cuts.json"
            },
            "sort_order": "d0_significance",
            "btagging_link": "btaggingLink",
            "input_name": "BTagTrackToJetAssociator",
            "output_name": "tracks",
            "variables": {
                "file": "fragments/pflow-track-variables-all.json"
            },
            "ip_prefix": "btagIp_"
        }
    ],
    "truths": [
        {
            "file": "fragments/overlap-leptons-TRUTH3.json"
        },
        {
            "association": {
                "file": "fragments/baseline-truth-kinematics.json",
                "particles": "promptLepton"
            },
            "decorate_summary": true
        }
    ],
    "decorate": {
        "jet_aug": false,
        "btag_jes": true,
        "soft_muon": false,
        "track_sv_info": true,
        "do_vrtrackjets_fix": true
    },
    "btagging_link": "btaggingLink"
}
